<?xml version="1.0" standalone="no"?>
<!DOCTYPE svg PUBLIC "-//W3C//DTD SVG 20010904//EN"
 "http://www.w3.org/TR/2001/REC-SVG-20010904/DTD/svg10.dtd">
<svg version="1.0" xmlns="http://www.w3.org/2000/svg"
 width="826.000000pt" height="252.000000pt" viewBox="0 0 826.000000 252.000000"
 preserveAspectRatio="xMidYMid meet">

<g transform="translate(0.000000,252.000000) scale(0.100000,-0.100000)"
fill="#000000" stroke="none">
<path d="M6975 2483 c-193 -15 -359 -67 -499 -157 -109 -70 -246 -228 -246
-285 0 -10 -7 -24 -15 -31 -8 -7 -15 -24 -15 -39 0 -15 -5 -32 -11 -38 -14
-14 -14 -312 0 -326 6 -6 11 -23 11 -38 0 -15 7 -32 15 -39 8 -7 15 -21 15
-31 0 -11 5 -19 10 -19 6 0 10 -9 10 -20 0 -11 7 -23 15 -26 8 -4 15 -11 15
-18 0 -6 11 -23 25 -38 14 -15 25 -32 25 -38 0 -5 3 -10 8 -10 4 0 23 -15 43
-34 81 -77 318 -205 491 -265 422 -146 514 -192 554 -277 15 -30 14 -36 -1
-71 -33 -75 -133 -113 -299 -113 -160 0 -269 35 -352 112 -46 43 -56 70 -58
168 l-1 65 -282 3 -283 2 0 -129 c0 -95 4 -136 15 -157 8 -16 15 -41 15 -56 0
-15 5 -30 10 -33 6 -3 10 -14 10 -24 0 -10 7 -24 15 -31 8 -7 15 -21 15 -31 0
-11 5 -19 10 -19 6 0 10 -7 10 -15 0 -9 7 -18 15 -21 8 -4 15 -11 15 -16 0 -9
67 -77 118 -120 84 -69 248 -143 404 -180 83 -20 119 -22 333 -22 213 0 250 2
326 21 141 36 289 101 337 150 7 7 17 13 21 13 10 0 113 100 129 125 6 11 15
27 19 35 4 8 9 17 13 20 12 9 40 73 40 92 0 10 7 29 16 42 22 35 22 312 0 358
-9 17 -16 37 -16 44 0 15 -32 78 -42 82 -5 2 -8 10 -8 19 0 34 -122 166 -208
225 -26 18 -53 38 -60 45 -43 42 -248 136 -457 210 -338 118 -419 160 -443
231 -22 63 20 126 108 165 91 41 310 33 401 -14 43 -21 109 -81 109 -98 0 -6
3 -11 8 -11 15 0 35 -77 39 -152 l5 -78 274 0 274 0 0 149 c0 83 -4 152 -9
155 -5 4 -12 24 -16 46 -4 22 -11 42 -16 46 -5 3 -9 16 -9 28 0 13 -7 29 -15
36 -8 7 -15 19 -15 26 0 8 -4 14 -10 14 -5 0 -10 7 -10 15 0 9 -7 18 -15 21
-8 4 -15 11 -15 18 0 11 -43 57 -102 110 -180 161 -510 254 -813 229z"/>
<path d="M3980 1270 l0 -1170 628 0 c360 0 657 5 697 10 104 15 228 58 298
102 66 43 163 138 187 185 8 15 21 34 28 41 6 7 12 22 12 33 0 10 5 19 10 19
6 0 10 15 10 33 0 17 7 41 15 51 21 28 21 319 0 356 -8 14 -14 37 -15 53 0 15
-4 27 -10 27 -5 0 -10 9 -10 19 0 11 -6 26 -12 33 -7 7 -19 25 -27 40 -21 41
-95 114 -155 153 -14 10 -26 21 -26 25 0 5 17 19 38 31 46 28 152 136 152 155
0 8 4 14 8 14 11 0 42 71 42 96 0 10 7 28 15 38 22 29 22 323 0 352 -8 10 -15
29 -15 42 0 20 -6 35 -31 82 -5 8 -16 30 -25 48 -44 88 -191 203 -319 251
-123 46 -206 51 -872 51 l-623 0 0 -1170z m1194 609 c21 -6 48 -19 59 -30 12
-10 24 -19 29 -19 4 0 8 -8 8 -19 0 -10 7 -24 15 -31 22 -18 20 -133 -2 -173
-29 -51 -47 -67 -102 -87 -46 -18 -78 -20 -336 -20 l-285 0 0 195 0 195 288 0
c174 0 302 -4 326 -11z m26 -863 c38 -20 70 -50 70 -64 0 -5 7 -15 15 -22 18
-15 22 -155 4 -165 -5 -4 -14 -18 -19 -31 -5 -13 -28 -36 -51 -51 l-42 -28
-309 -3 -308 -3 0 196 0 196 303 -3 c273 -3 305 -5 337 -22z"/>
<path d="M162 1278 l3 -1083 1488 -3 1487 -2 0 1085 0 1085 -1490 0 -1490 0 2
-1082z m2835 22 c1 -498 0 -915 -3 -928 l-4 -22 -1343 2 -1342 3 -3 915 c-1
503 0 921 3 928 3 10 278 12 1347 10 l1343 -3 2 -905z"/>
<path d="M1318 1779 c-13 -7 -18 -23 -18 -54 0 -74 -1 -75 -106 -75 -51 0
-115 -5 -142 -11 -52 -11 -112 -54 -112 -81 0 -9 -7 -21 -15 -28 -8 -7 -15
-24 -15 -39 0 -15 -5 -32 -11 -38 -20 -20 -32 -129 -36 -331 l-4 -203 28 3
c24 2 29 8 31 36 2 18 10 36 18 39 8 3 14 10 14 17 0 28 90 74 148 75 78 2
172 -72 172 -136 0 -33 0 -33 49 -33 41 0 51 -4 56 -20 6 -19 15 -20 135 -20
118 0 128 1 133 20 4 17 15 20 93 22 84 3 89 4 92 26 3 21 1 22 -92 22 -96 0
-96 0 -96 25 l0 25 109 0 c85 0 113 3 125 15 24 25 98 55 134 55 82 0 172 -74
172 -142 l0 -28 95 0 c95 0 95 0 95 25 0 16 -6 25 -15 25 -12 0 -15 14 -15 64
l0 64 55 4 c31 3 60 9 66 15 19 19 29 142 27 359 -2 249 -9 299 -41 308 -40
11 -1111 6 -1129 -5z m1120 -15 l22 -6 -2 -312 -3 -311 -570 0 -570 0 -3 305
c-2 278 -1 306 15 318 13 9 140 12 552 12 295 0 546 -3 559 -6z m-1247 -182
c19 -22 33 -198 18 -225 -8 -13 -24 -17 -75 -17 -45 0 -70 -5 -80 -15 -11 -11
-35 -14 -87 -13 l-72 2 64 3 c44 3 72 10 89 24 18 14 40 19 81 19 l56 0 2 41
c0 22 -1 38 -5 35 -11 -12 -32 17 -32 44 0 32 -21 53 -44 44 -23 -9 -22 -70 2
-79 16 -6 16 -7 0 -19 -10 -7 -18 -17 -18 -21 0 -4 -17 -22 -37 -41 -35 -31
-44 -34 -101 -34 l-64 0 7 42 c4 23 13 58 21 78 l13 35 0 -55 c1 -30 6 -62 11
-70 7 -10 10 18 8 91 -2 134 -1 137 113 142 46 1 91 4 99 5 9 1 23 -6 31 -16z
m-270 -412 c30 -17 26 -74 -7 -89 -35 -16 -44 -7 -44 43 0 57 11 67 51 46z
m674 -124 c16 -12 17 -16 6 -30 -7 -9 -24 -16 -37 -16 -38 0 -32 54 7 59 3 1
14 -5 24 -13z m-225 -51 c0 -21 -5 -25 -30 -25 -25 0 -30 4 -30 25 0 21 5 25
30 25 25 0 30 -4 30 -25z"/>
<path d="M1373 1704 c8 -8 1026 -8 1034 0 4 3 -229 6 -517 6 -288 0 -521 -3
-517 -6z"/>
<path d="M1373 1638 c-2 -5 231 -8 518 -8 287 0 519 3 515 7 -9 9 -1027 10
-1033 1z"/>
<path d="M1372 1575 c7 -7 1030 -6 1037 0 2 3 -231 5 -519 5 -288 0 -521 -2
-518 -5z"/>
<path d="M1375 1510 c4 -6 187 -10 515 -10 328 0 511 4 515 10 4 7 -170 10
-515 10 -345 0 -519 -3 -515 -10z"/>
<path d="M1373 1448 c-2 -5 231 -8 518 -8 287 0 520 3 517 6 -9 9 -1029 10
-1035 2z"/>
<path d="M1370 1383 c0 -10 1028 -8 1037 1 3 3 -228 6 -515 6 -287 0 -522 -3
-522 -7z"/>
<path d="M1370 1318 c0 -5 235 -8 522 -8 287 0 518 3 515 7 -9 9 -1037 10
-1037 1z"/>
<path d="M1372 1255 c3 -3 236 -6 518 -6 282 0 515 3 518 6 3 3 -230 5 -518 5
-288 0 -521 -2 -518 -5z"/>
<path d="M1375 1190 c-4 -7 170 -10 515 -10 345 0 519 3 515 10 -8 14 -1022
14 -1030 0z"/>
<path d="M1050 1039 c-27 -11 -60 -43 -60 -57 0 -5 -7 -15 -15 -22 -17 -14
-20 -76 -4 -85 5 -4 14 -18 19 -31 5 -13 24 -33 42 -44 90 -55 198 11 198 121
0 22 -3 39 -8 39 -4 0 -12 10 -17 22 -13 30 -72 68 -104 67 -14 0 -37 -5 -51
-10z m91 -51 c28 -13 51 -53 45 -78 -11 -43 -20 -59 -42 -69 -42 -19 -77 -13
-111 18 -39 36 -39 69 0 111 31 33 65 38 108 18z"/>
<path d="M1083 933 c-7 -2 -13 -11 -13 -18 0 -16 30 -29 42 -17 9 9 1 43 -11
41 -3 0 -12 -3 -18 -6z"/>
<path d="M1961 1043 c-8 -3 -28 -19 -44 -36 -26 -26 -30 -38 -31 -91 -1 -49 3
-65 20 -82 38 -38 68 -54 103 -54 38 0 101 34 101 55 0 7 5 15 11 17 6 2 14
26 16 54 4 38 1 53 -11 63 -9 7 -16 19 -16 25 0 6 -16 21 -35 34 -33 21 -82
27 -114 15z m107 -68 c23 -19 30 -33 30 -61 0 -47 -29 -75 -84 -82 -36 -4 -46
0 -68 21 -30 30 -34 71 -9 107 23 34 33 40 70 40 19 0 43 -10 61 -25z"/>
<path d="M1988 935 c-3 -3 -3 -15 -1 -26 7 -26 38 -21 38 6 0 19 -25 32 -37
20z"/>
</g>
</svg>
